{
  "type": "service_account",
  "project_id": "enermex-fastgas",
  "private_key_id": "2abde6ccf4b97d72d24e5df0117e05a0ca71d071",
  "private_key": "-----BEGIN PRIVATE KEY-----\nMIIEvgIBADANBgkqhkiG9w0BAQEFAASCBKgwggSkAgEAAoIBAQD1mNDw5aDHaziS\nhqrObygGUa34GfYseQNckGqFpbZ0rEDf/CpQrSZ/x1iXEbY1MsqET5IHd4VQLtdJ\n5OtueuAFEDMt6zC8cAfFu/VNNKyWku48HmXHFhCV/J18RxQq3gdC9q8JxYRw4Aie\nWRykifM6d3DIwmH7OCuWCtbZNdGYZwAp8YRgHx/Nr5L9USK5qw/qf3MwXymWNL2k\nQx4RUKNyEHMfC0O1rY/kSwBw8dap2Pndt9QZ1gLect/KynxJJvzJie18mTNHLkI+\n7/T7v4mtXwdzlQD42aFgdtLSVQPNzSLQ+HSwDtzB1hC7sMyr3Dy7I4N1HCU3XHLB\n30G+7zptAgMBAAECggEALliAY1k94iv0YMg7btnQkIK05OsHRsSuUvcotuA64mEI\nHAyCsrc+GuJUMCvmObtENrwqRzDxjhxMwbPKjs5uvF3efpWRnJm6icCqrX9Za0++\nV8d3tt5N0nP5hxSFtIIyFhulk987Wy6XycPwsQccSGX2OVhfM5BZv0Z73UD39L1q\nhYjbPeRz3IRo1FJwglW2sOeJsmpi82qM4D+rIJITKT8dMqr6Ovugya0SQI2OuWX2\n0trjHF+k553lZ1OJkE2guIRJxfIyG00EkKhimTga72gqoTKh3T9xFKmQXasaS+t0\nSK8VqBQcQeL7WVh2BWKzjC4BC+SmabP5uNyTcNUr4QKBgQD/40G5wJDCY7DLwEIr\n+RwotUBA7RFJgtpdFNr/qt6GOB2rYHUCA0RhEzY5TcVNLbq4FniSqfZ1ZlZnsPaE\nGVJOnpvB7l3RmxFPToMa8SyPhJs3dSxvT4N4WLKOLtRh8ScTFAdoSkQdqFW4fgzr\nP7viekEKoxFWzQ8/hQSvnubZIQKBgQD1tGdLgsOIR2J6HdJvlkI4V/3xdTcGg5uz\nJsieZyqDifqDRiGIShI0+UsjGquXkRqaoC/0N0+UW1kFWhjXELMO4nm/j0nNlKML\nlspw0mf1sWhVgAp6A69cAbbSr7yZtKlpH0tddxNz7vP8DsJL6nPt9FNEDbXo80ZQ\nVwHNEzD7zQKBgQCOjW4qK0r54Eu31q2GjcrQKtlW0jsVNt6riFjQocJCB7UPqjbF\nHkjTw74rglXuPxGMSIh3PFRe5tov/ff3c5vUzKt9CGwfv0GPau/C7KSkd315Eb/l\nauiU/OTMLO6Iea4JBNlzkhwMYaEPnLlZvTHQY8ckQ9/++VILUvFfXSjBwQKBgFy6\n71kiSuV9+36XDrqqfOeC3gZo9JFyzip48rJFwVfPlUpCB5nGSsTPaTogcK5NRzsg\nRbjnvxMAvsI0VLemR83QT56qV3JNLJPNHy4hWrbxc60BG/McvOv+gZ9WT9m6w003\nUFw/+omAn3h7oXzBSWt/EIXYntUCK4FatQVOvufpAoGBAKbJLrXrNaYk5+0vQ8mO\ndwspSDnbPrZk+zshOh1B42xRbPVxr+L72e5eqVzlLyz4Za7TdliKdJTWZTD4Qg5L\nSLWnWAr6qlYtiKyp2I4zxmDXRYjFL/bVN5EPEsK51Z+JUfjFgfLKaBLkOB6TsKOc\nrrrU+N7tP+7lWA2EFWiBDb1w\n-----END PRIVATE KEY-----\n",
  "client_email": "firebase-adminsdk-ga3ab@enermex-fastgas.iam.gserviceaccount.com",
  "client_id": "102520458782354675871",
  "auth_uri": "https://accounts.google.com/o/oauth2/auth",
  "token_uri": "https://oauth2.googleapis.com/token",
  "auth_provider_x509_cert_url": "https://www.googleapis.com/oauth2/v1/certs",
  "client_x509_cert_url": "https://www.googleapis.com/robot/v1/metadata/x509/firebase-adminsdk-ga3ab%40enermex-fastgas.iam.gserviceaccount.com"
}
